"Sony","sukltd","SONY UK","Network Role","Sony","EGCAI-OP-Sony-CICSupervisors@sykes.com"
"samsung","samsung100","SAMSUNG ELECTRONICS","Network Role","Samsung","gfernandes@samsung.com"
"Clair Davies","meeko","CLAIR DAVIES","Network Role","Noise","support@thenoiseuk.com"
"Graham S-S","tabby","GRAHAM S-S","Network Role","Noise","support@thenoiseuk.com"
"NOISEADMIN1","NUKADMIN32","NOISEADMIN1","Network Role","Noise",""
"noiseuk","nuk1965","THE NOISE UK (MAIN LOGIN)","Network Role","Noise","bill.walker@thenoiseuk.com"
"noiseweb","nweb432w","NOISE WEB USER","Network Role","Noise",""
"Norman Guess","clarets","NORMAN GUESS","Network Role","Noise","support@thenoiseuk.com"
"pccsnoise","pccs123","PCCS NOISE LOGIN","Network Role","Noise",""